<?xml version="1.0" encoding="UTF-8" standalone="no"?>
<!-- Created with Inkscape (http://www.inkscape.org/) -->

<svg
   width="210mm"
   height="297mm"
   viewBox="0 0 210 297"
   version="1.1"
   id="svg5"
   inkscape:version="1.1.1 (3bf5ae0d25, 2021-09-20, custom)"
   sodipodi:docname="griglia_prua_bordo.svg"
   xmlns:inkscape="http://www.inkscape.org/namespaces/inkscape"
   xmlns:sodipodi="http://sodipodi.sourceforge.net/DTD/sodipodi-0.dtd"
   xmlns="http://www.w3.org/2000/svg"
   xmlns:svg="http://www.w3.org/2000/svg">
  <sodipodi:namedview
     id="namedview7"
     pagecolor="#505050"
     bordercolor="#eeeeee"
     borderopacity="1"
     inkscape:pageshadow="0"
     inkscape:pageopacity="0"
     inkscape:pagecheckerboard="0"
     inkscape:document-units="mm"
     showgrid="false"
     showguides="false"
     inkscape:lockguides="false"
     inkscape:zoom="1.07"
     inkscape:cx="-141.58879"
     inkscape:cy="1129.9065"
     inkscape:window-width="1920"
     inkscape:window-height="1061"
     inkscape:window-x="0"
     inkscape:window-y="0"
     inkscape:window-maximized="1"
     inkscape:current-layer="layer1" />
  <defs
     id="defs2">
    <clipPath
       clipPathUnits="userSpaceOnUse"
       id="clipPath791">
      <rect
         style="fill:#5fd35f;fill-opacity:0.5;stroke:#000000;stroke-width:0.264583;stroke-opacity:0"
         id="rect793"
         width="228.89839"
         height="135.51846"
         x="-69.969215"
         y="240.66895" />
    </clipPath>
  </defs>
  <g
     inkscape:label="Layer 1"
     inkscape:groupmode="layer"
     id="layer1">
    <path
       style="fill:#ff0000;stroke:#000000;stroke-width:0.264583px;stroke-linecap:butt;stroke-linejoin:miter;stroke-opacity:1"
       d="m -31.997727,293.70735 c -7.648175,-7.93671 -9.491631,-10.37895 -13.688979,-15.76101 -1.435139,-1.84021 0.410966,-2.76373 1.983702,-1.48897 12.928861,10.47931 25.703984,13.10342 39.7634949,14.38358 v 1.88076 c -29.2321669,-1.63016 -40.7043549,-15.63175 -40.7043549,-15.63175 0.895407,2.91315 5.849325,6.5596 12.279933,12.75768 10.969423,10.57277 16.695075,20.95697 16.695075,20.95697 l 30.569157,-0.0481 c 0,0 6.35274,-10.26058 19.32465,-21.75856 6.558594,-5.81337 9.992124,-9.08345 10.91594,-11.89535 0,0 -14.21438,13.55934 -41.0167501,15.5317 v -1.87804 c 0,0 19.8821501,0.239 40.1672941,-14.35898 2.213526,-1.59295 3.958636,-0.19727 2.102906,1.89706 -3.385496,3.82079 -7.524166,8.69917 -14.09151,15.61255 -4.85846,5.11445 -8.70615,8.57173 -14.80163,18.86702 h -35.644473 c -5.589005,-11.00414 -9.071094,-14.10274 -13.854455,-19.06656 z"
       id="path1038-3"
       sodipodi:nodetypes="ssscccsccscccsssccs" />
  </g>
</svg>
