<?xml version="1.0" encoding="UTF-8" standalone="no"?>
<!-- Created with Inkscape (http://www.inkscape.org/) -->

<svg
   width="210mm"
   height="297mm"
   viewBox="0 0 210 297"
   version="1.1"
   id="svg5"
   inkscape:version="1.1.1 (3bf5ae0d25, 2021-09-20, custom)"
   sodipodi:docname="griglia_prua_interno.svg"
   xmlns:inkscape="http://www.inkscape.org/namespaces/inkscape"
   xmlns:sodipodi="http://sodipodi.sourceforge.net/DTD/sodipodi-0.dtd"
   xmlns="http://www.w3.org/2000/svg"
   xmlns:svg="http://www.w3.org/2000/svg">
  <sodipodi:namedview
     id="namedview7"
     pagecolor="#505050"
     bordercolor="#eeeeee"
     borderopacity="1"
     inkscape:pageshadow="0"
     inkscape:pageopacity="0"
     inkscape:pagecheckerboard="0"
     inkscape:document-units="mm"
     showgrid="false"
     showguides="false"
     inkscape:lockguides="false"
     inkscape:zoom="1.07"
     inkscape:cx="-141.58879"
     inkscape:cy="1129.9065"
     inkscape:window-width="1920"
     inkscape:window-height="1061"
     inkscape:window-x="0"
     inkscape:window-y="0"
     inkscape:window-maximized="1"
     inkscape:current-layer="layer1" />
  <defs
     id="defs2">
    <clipPath
       clipPathUnits="userSpaceOnUse"
       id="clipPath791">
      <rect
         style="fill:#5fd35f;fill-opacity:0.5;stroke:#000000;stroke-width:0.264583;stroke-opacity:0"
         id="rect793"
         width="228.89839"
         height="135.51846"
         x="-69.969215"
         y="240.66895" />
    </clipPath>
  </defs>
  <g
     inkscape:label="Layer 1"
     inkscape:groupmode="layer"
     id="layer1">
    <path
       style="fill:#ffff00;stroke:#000000;stroke-width:0.264592px;stroke-linecap:butt;stroke-linejoin:miter;stroke-opacity:1"
       d="m 4.1241109,297.04582 v -4.41307 c 26.8020201,-1.97253 41.0162201,-15.53302 41.0162201,-15.53302 -0.923796,2.81213 -4.357286,6.08249 -10.9158,11.89636 -12.97174,11.49895 -19.3244,21.76041 -19.3244,21.76041 l -30.568761,0.0481 c 0,0 -5.725579,-10.38508 -16.69486,-20.95875 -6.430525,-6.1986 -11.384378,-9.84537 -12.279774,-12.75877 0,0 11.47204,14.00279 40.7038249,15.63308 v 4.33482 z"
       id="path1038-3-6"
       sodipodi:nodetypes="ccsccsccccc" />
  </g>
</svg>
